<?xml version="1.0" standalone="no"?>
<!DOCTYPE svg PUBLIC "-//W3C//DTD SVG 1.1//EN" "http://www.w3.org/Graphics/SVG/1.1/DTD/svg11.dtd">
<svg xmlns="http://www.w3.org/2000/svg">
<metadata>Copyright (C) 2022 by original authors @ fontello.com</metadata>
<defs>
<font id="fontello" horiz-adv-x="1000" >
<font-face font-family="fontello" font-weight="400" font-stretch="normal" units-per-em="1000" ascent="850" descent="-150" />
<missing-glyph horiz-adv-x="1000" />
<glyph glyph-name="user" unicode="&#xe800;" d="M714 69q0-60-35-104t-84-44h-476q-49 0-84 44t-35 104q0 48 5 90t17 85 33 73 52 50 76 19q73-72 174-72t175 72q42 0 75-19t52-50 33-73 18-85 4-90z m-143 495q0-88-62-151t-152-63-151 63-63 151 63 152 151 63 152-63 62-152z" horiz-adv-x="714.3" />

<glyph glyph-name="award" unicode="&#xe801;" d="M256 357q-42 91-42 207h-143v-53q0-44 53-91t132-63z m601 154v53h-143q0-116-41-207 79 16 131 63t53 91z m72 71v-71q0-40-24-80t-62-73-97-54-120-25q-23-30-53-53-21-19-29-40t-8-50q0-30 17-51t54-21q42 0 75-25t32-64v-36q0-8-5-13t-13-5h-464q-8 0-13 5t-5 13v36q0 39 33 64t74 25q38 0 55 21t17 51q0 28-8 50t-29 40q-30 23-53 53-64 3-121 25t-96 54-63 73-23 80v71q0 23 16 38t38 16h160v53q0 37 27 63t63 27h321q37 0 63-27t26-63v-53h161q22 0 38-16t16-38z" horiz-adv-x="928.6" />

<glyph glyph-name="duckduckgo" unicode="&#xe802;" d="M0 349q0 215 141 355t355 141 356-141 140-355q0-182-103-313t-280-172q-9 17-33 52t-35 56q64-26 86-26 16 0 16 50 0 94-17 94-25 0-97-55 0 14-15 12l-5 0q-26 69-26 123 0 15 3 30 92-45 148-45 31 0 94 18t62 39q0 13-17 13-26 0-75-7t-75-7q-27 0-59 14t-33 38q0 5 2 7t4 3 6 0 8-1 9 0q9 0 26-3t25-2q31 0 127 36t96 57q0 12-18 17t-35 5q-14 0-42-8t-61-18-44-13q4 20 4 32 0 47-25 109t-58 93q-27 24-72 33-28 36-87 65t-106 30q-9 0-27-4t-24-4l-22-31 6-1q7 0 22 2t21 2q34 0 78-14-28-14-49-19-2-1-13-3t-18-3-14-6-7-11q56 6 84 6 38 0 60-7-77-9-118-53t-42-121q0-27 4-50 19-120 73-358 33-155 37-171l1-4q-160 50-251 186t-91 308z m283 124q0-6 3-12-1 16 18 28t36 12q8 0 20-5-10 13-29 13-17 0-32-10t-16-26z m33-75q0 13 11 23t23 11 24-11 10-23-10-24-24-10-23 10-11 24z m40 11q0-8 9-8t9 8q0 9-9 9t-9-9z m168 87q8 13 37 13 13 0 33-10-10 22-35 22-31 0-35-25z m23-78q0 12 9 20t20 9q12 0 21-9t8-20q0-11-8-20t-21-9q-11 0-20 9t-9 20z m35 10q0-8 7-8 8 0 8 8 0 7-8 7-7 0-7-7z" horiz-adv-x="992" />

<glyph glyph-name="twitter" unicode="&#xf099;" d="M904 622q-37-54-90-93 0-8 0-23 0-73-21-145t-64-139-103-117-144-82-181-30q-151 0-276 81 19-2 43-2 126 0 224 77-59 1-105 36t-64 89q19-3 34-3 24 0 48 6-63 13-104 62t-41 115v2q38-21 82-23-37 25-59 64t-22 86q0 49 25 91 68-83 164-133t208-55q-5 21-5 41 0 75 53 127t127 53q79 0 132-57 61 12 115 44-21-64-80-100 52 6 104 28z" horiz-adv-x="928.6" />

<glyph glyph-name="facebook" unicode="&#xf09a;" d="M535 843v-147h-87q-48 0-65-20t-17-60v-106h164l-22-165h-142v-424h-171v424h-142v165h142v122q0 104 58 161t155 57q82 0 127-7z" horiz-adv-x="571.4" />

<glyph glyph-name="youtube" unicode="&#xf167;" d="M542 156v-118q0-37-22-37-13 0-25 12v168q12 12 25 12 22 0 22-37z m189-1v-25h-51v25q0 38 25 38t26-38z m-540 122h60v52h-174v-52h59v-318h55v318z m161-318h50v276h-50v-211q-17-23-32-23-10 0-11 11-1 2-1 20v203h-50v-218q0-28 5-41 7-21 32-21 27 0 57 34v-30z m240 83v110q0 41-5 55-10 31-40 31-28 0-52-30v121h-50v-370h50v27q25-31 52-31 30 0 40 31 5 15 5 56z m188 6v7h-51q0-29-1-34-4-20-22-20-26 0-26 38v49h100v57q0 44-15 65-22 28-59 28-38 0-60-28-15-21-15-65v-96q0-44 16-65 22-29 60-29 40 0 60 30 10 15 12 30 1 5 1 33z m-339 509v117q0 39-24 39t-24-39v-117q0-39 24-39t24 39z m401-419q0-131-14-195-8-33-33-56t-57-25q-102-12-309-12t-310 12q-32 3-57 25t-32 56q-15 62-15 195 0 131 15 195 7 33 32 56t57 26q103 11 310 11t309-11q33-4 58-26t32-56q14-62 14-195z m-557 712h57l-67-223v-151h-56v151q-8 42-34 119-21 57-37 104h60l39-147z m207-186v-97q0-46-16-66-21-29-59-29-37 0-59 29-15 21-15 66v97q0 45 15 66 22 28 59 28 38 0 59-28 16-21 16-66z m187 91v-279h-51v31q-30-35-58-35-25 0-33 21-4 13-4 42v220h51v-205q0-19 0-20 2-12 12-12 15 0 32 24v213h51z" horiz-adv-x="857.1" />

<glyph glyph-name="google" unicode="&#xf1a0;" d="M429 411h404q7-37 7-71 0-121-51-216t-145-149-215-54q-88 0-167 34t-137 91-91 137-34 167 34 167 91 137 137 91 167 34q167 0 287-113l-117-112q-68 67-170 67-72 0-133-37t-97-98-36-136 36-136 97-98 133-37q48 0 89 14t67 33 46 46 28 49 13 43h-243v147z" horiz-adv-x="857.1" />

<glyph glyph-name="cab" unicode="&#xf1b9;" d="M268 243q0 37-26 63t-63 26-63-26-27-63 27-63 63-26 63 26 26 63z m20 178h567l-50 200q-1 4-8 9t-11 6h-429q-5 0-12-6t-7-9z m766-178q0 37-27 63t-63 26-63-26-26-63 26-63 63-26 63 26 27 63z m89 53v-214q0-8-5-13t-13-5h-54v-71q0-45-31-76t-76-31-76 31-31 76v71h-571v-71q0-45-31-76t-76-31-76 31-32 76v71h-53q-8 0-13 5t-5 13v214q0 52 37 89t88 36h16l58 234q13 53 58 88t100 36h429q54 0 100-36t58-88l58-234h16q52 0 88-36t37-89z" horiz-adv-x="1142.9" />

<glyph glyph-name="gitlab" unicode="&#xf296;" d="M58 456l442-566-484 351q-10 7-14 19t0 24l56 172z m258 0h368l-184-566z m-111 342l111-342h-258l111 342q4 12 18 12t18-12z m737-342l56-172q4-12 0-24t-14-19l-484-351 442 566z m0 0h-258l111 342q4 12 18 12t19-12z" horiz-adv-x="1000" />
</font>
</defs>
</svg>
